\relax 
\providecommand\babel@aux[2]{}
\@nameuse{bbl@beforestart}
\babel@aux{english}{}
\citation{larson-short-proof}
\citation{erdos-theorem-partition}
\bibstyle{abbrv}
\bibdata{root}
\@writefile{toc}{\contentsline {section}{\numberline {1}Acknowledgements}{2}\protected@file@percent }
